{
    "ignore": ["**/*.test.ts","**/*.spec.ts", ".git", "node_modules", ".gitignore"],
    "watch": ["src"],
    "exec": "node --require ts-node/register --inspect=0.0.0.0:9333",
    "ext": "ts, json, js",
    "verbose": true
}